netfpga/only_fifo/tb/build/user_top_tb.vcd
$date
	Sat Apr 11 04:17:10 2026
$end
$version
	Icarus Verilog
$end
$timescale
	1ps
$end
$scope module user_top_tb $end
$var wire 2 ! reg_src_out [1:0] $end
$var wire 1 " reg_req_out $end
$var wire 1 # reg_rd_wr_L_out $end
$var wire 32 $ reg_data_out [31:0] $end
$var wire 16 % reg_addr_out [15:0] $end
$var wire 1 & reg_ack_out $end
$var wire 1 ' out_wr $end
$var wire 64 ( out_data [63:0] $end
$var wire 8 ) out_ctrl [7:0] $end
$var wire 1 * in_rdy $end
$var reg 1 + clk $end
$var reg 512 , current_test_name [511:0] $end
$var reg 8 - held_ctrl [7:0] $end
$var reg 64 . held_data [63:0] $end
$var reg 1 / hold_check_active $end
$var reg 8 0 in_ctrl [7:0] $end
$var reg 64 1 in_data [63:0] $end
$var reg 1 2 in_wr $end
$var reg 1 3 out_rdy $end
$var reg 1 4 reg_ack_in $end
$var reg 16 5 reg_addr_in [15:0] $end
$var reg 32 6 reg_data_in [31:0] $end
$var reg 1 7 reg_rd_wr_L_in $end
$var reg 1 8 reg_req_in $end
$var reg 2 9 reg_src_in [1:0] $end
$var reg 1 : reset $end
$var reg 1 ; store_forward_guard $end
$var integer 32 < bp_counter [31:0] $end
$var integer 32 = bp_mode [31:0] $end
$var integer 32 > cycle_count [31:0] $end
$var integer 32 ? expected_words [31:0] $end
$var integer 32 @ fail_count [31:0] $end
$var integer 32 A frame_len [31:0] $end
$var integer 32 B observed_words [31:0] $end
$var integer 32 C packet_count_in_test [31:0] $end
$var integer 32 D test_count [31:0] $end
$var integer 32 E tx_word_count [31:0] $end
$scope function eop_ctrl $end
$var reg 8 F eop_ctrl [7:0] $end
$var integer 32 G valid_bytes [31:0] $end
$upscope $end
$scope module dut $end
$var wire 1 + clk $end
$var wire 8 H in_ctrl [7:0] $end
$var wire 64 I in_data [63:0] $end
$var wire 1 2 in_wr $end
$var wire 1 3 out_rdy $end
$var wire 1 4 reg_ack_in $end
$var wire 1 & reg_ack_out $end
$var wire 16 J reg_addr_in [15:0] $end
$var wire 16 K reg_addr_out [15:0] $end
$var wire 32 L reg_data_in [31:0] $end
$var wire 32 M reg_data_out [31:0] $end
$var wire 1 7 reg_rd_wr_L_in $end
$var wire 1 # reg_rd_wr_L_out $end
$var wire 1 8 reg_req_in $end
$var wire 1 " reg_req_out $end
$var wire 2 N reg_src_in [1:0] $end
$var wire 2 O reg_src_out [1:0] $end
$var wire 1 : reset $end
$var wire 1 ' out_wr $end
$var wire 64 P out_data [63:0] $end
$var wire 8 Q out_ctrl [7:0] $end
$var wire 1 * in_rdy $end
$var wire 1 R front_buf_out_wr $end
$var wire 1 S front_buf_out_rdy $end
$var wire 64 T front_buf_out_data [63:0] $end
$var wire 8 U front_buf_out_ctrl [7:0] $end
$var wire 1 V action_out_wr $end
$var wire 1 W action_out_rdy $end
$var wire 64 X action_out_data [63:0] $end
$var wire 8 Y action_out_ctrl [7:0] $end
$scope module u_action_selector $end
$var wire 1 Z accept_word $end
$var wire 1 + clk $end
$var wire 1 S in_rdy $end
$var wire 8 [ out_ctrl [7:0] $end
$var wire 64 \ out_data [63:0] $end
$var wire 1 V out_wr $end
$var wire 1 ] packet_end $end
$var wire 1 ^ packet_start $end
$var wire 1 : reset $end
$var wire 1 W out_rdy $end
$var wire 1 R in_wr $end
$var wire 64 _ in_data [63:0] $end
$var wire 8 ` in_ctrl [7:0] $end
$var reg 1 a in_packet $end
$var reg 2 b packet_action [1:0] $end
$upscope $end
$scope module u_backend_buffer $end
$var wire 1 c accept_word $end
$var wire 1 + clk $end
$var wire 1 d drain_done $end
$var wire 8 e in_ctrl [7:0] $end
$var wire 64 f in_data [63:0] $end
$var wire 1 W in_rdy $end
$var wire 1 V in_wr $end
$var wire 1 g issue_read $end
$var wire 1 3 out_rdy $end
$var wire 1 ' out_wr $end
$var wire 1 : reset $end
$var wire 1 h write_enable $end
$var wire 72 i write_word [71:0] $end
$var wire 8 j write_addr [7:0] $end
$var wire 64 k out_data [63:0] $end
$var wire 8 l out_ctrl [7:0] $end
$var wire 72 m bram_doutb [71:0] $end
$var wire 72 n bram_douta [71:0] $end
$var reg 1 o out_valid $end
$var reg 72 p out_word [71:0] $end
$var reg 9 q pkt_len [8:0] $end
$var reg 1 r rd_pending $end
$var reg 9 s read_count [8:0] $end
$var reg 2 t state [1:0] $end
$var reg 9 u write_count [8:0] $end
$scope module u_bram $end
$var wire 8 v addra [7:0] $end
$var wire 8 w addrb [7:0] $end
$var wire 1 + clka $end
$var wire 1 + clkb $end
$var wire 72 x dina [71:0] $end
$var wire 72 y dinb [71:0] $end
$var wire 1 h wea $end
$var wire 1 z web $end
$var reg 72 { douta [71:0] $end
$var reg 72 | doutb [71:0] $end
$upscope $end
$upscope $end
$scope module u_front_buffer $end
$var wire 1 } accept_word $end
$var wire 1 + clk $end
$var wire 1 ~ drain_done $end
$var wire 8 !" in_ctrl [7:0] $end
$var wire 64 "" in_data [63:0] $end
$var wire 1 * in_rdy $end
$var wire 1 2 in_wr $end
$var wire 1 #" issue_read $end
$var wire 1 S out_rdy $end
$var wire 1 R out_wr $end
$var wire 1 : reset $end
$var wire 1 $" write_enable $end
$var wire 72 %" write_word [71:0] $end
$var wire 8 &" write_addr [7:0] $end
$var wire 64 '" out_data [63:0] $end
$var wire 8 (" out_ctrl [7:0] $end
$var wire 72 )" bram_doutb [71:0] $end
$var wire 72 *" bram_douta [71:0] $end
$var reg 1 +" out_valid $end
$var reg 72 ," out_word [71:0] $end
$var reg 9 -" pkt_len [8:0] $end
$var reg 1 ." rd_pending $end
$var reg 9 /" read_count [8:0] $end
$var reg 2 0" state [1:0] $end
$var reg 9 1" write_count [8:0] $end
$scope module u_bram $end
$var wire 8 2" addra [7:0] $end
$var wire 8 3" addrb [7:0] $end
$var wire 1 + clka $end
$var wire 1 + clkb $end
$var wire 72 4" dina [71:0] $end
$var wire 72 5" dinb [71:0] $end
$var wire 1 $" wea $end
$var wire 1 6" web $end
$var reg 72 7" douta [71:0] $end
$var reg 72 8" doutb [71:0] $end
$upscope $end
$upscope $end
$upscope $end
$scope task append_be16 $end
$var reg 16 9" value [15:0] $end
$upscope $end
$scope task append_be32 $end
$var reg 32 :" value [31:0] $end
$upscope $end
$scope task append_byte $end
$var reg 8 ;" value [7:0] $end
$upscope $end
$scope task append_pattern $end
$var reg 8 <" seed [7:0] $end
$var integer 32 =" count [31:0] $end
$var integer 32 >" i [31:0] $end
$upscope $end
$scope task apply_reset $end
$upscope $end
$scope task build_ipv4_tcp_packet $end
$var reg 16 ?" dst_port_mask [15:0] $end
$var reg 8 @" payload_seed [7:0] $end
$var reg 16 A" src_port [15:0] $end
$var reg 16 B" tcp_dst_port [15:0] $end
$var reg 16 C" tcp_src_port [15:0] $end
$var integer 32 D" ihl_words [31:0] $end
$var integer 32 E" ip_header_len [31:0] $end
$var integer 32 F" ip_options_bytes [31:0] $end
$var integer 32 G" ip_total_len [31:0] $end
$var integer 32 H" option_idx [31:0] $end
$var integer 32 I" tcp_data_offset [31:0] $end
$var integer 32 J" tcp_payload_len [31:0] $end
$upscope $end
$scope task build_ipv4_udp_packet $end
$var reg 16 K" dst_port_mask [15:0] $end
$var reg 8 L" payload_seed [7:0] $end
$var reg 16 M" src_port [15:0] $end
$var reg 16 N" udp_dst_port [15:0] $end
$var reg 16 O" udp_src_port [15:0] $end
$var integer 32 P" ip_total_len [31:0] $end
$var integer 32 Q" udp_len_field [31:0] $end
$var integer 32 R" udp_payload_len [31:0] $end
$upscope $end
$scope task clear_scoreboard $end
$upscope $end
$scope task drive_idle_cycles $end
$var integer 32 S" count [31:0] $end
$var integer 32 T" i [31:0] $end
$upscope $end
$scope task expect_opl_packet_layout $end
$var reg 16 U" exp_dst_port_mask [15:0] $end
$var reg 64 V" exp_module_header [63:0] $end
$var reg 16 W" exp_src_port [15:0] $end
$var integer 32 X" data_word_count [31:0] $end
$var integer 32 Y" tail_valid_bytes [31:0] $end
$var integer 32 Z" word_idx [31:0] $end
$upscope $end
$scope task expect_reg_passthrough $end
$upscope $end
$scope task finalize_packet $end
$var reg 16 [" byte_len_field [15:0] $end
$var reg 16 \" dst_port_mask [15:0] $end
$var reg 64 ]" packed_word [63:0] $end
$var reg 16 ^" src_port [15:0] $end
$var reg 16 _" word_len_field [15:0] $end
$var integer 32 `" byte_idx [31:0] $end
$var integer 32 a" data_word_count [31:0] $end
$var integer 32 b" lane [31:0] $end
$var integer 32 c" valid_bytes [31:0] $end
$var integer 32 d" word_idx [31:0] $end
$upscope $end
$scope task finish_test $end
$var integer 32 e" idle_cycles [31:0] $end
$upscope $end
$scope task log_packet_summary $end
$var integer 32 f" check_store_forward [31:0] $end
$var integer 32 g" pkt_idx [31:0] $end
$var integer 32 h" stall_after_word [31:0] $end
$var integer 32 i" stall_cycles [31:0] $end
$upscope $end
$scope task push_expected_word $end
$var reg 8 j" ctrl_word [7:0] $end
$var reg 64 k" data_word [63:0] $end
$upscope $end
$scope task record_failure $end
$var reg 512 l" message [511:0] $end
$upscope $end
$scope task send_packet $end
$var integer 32 m" check_store_forward [31:0] $end
$var integer 32 n" pkt_idx [31:0] $end
$var integer 32 o" stall_after_word [31:0] $end
$var integer 32 p" stall_cycles [31:0] $end
$var integer 32 q" word_idx [31:0] $end
$upscope $end
$scope task send_word $end
$var reg 8 r" ctrl_word [7:0] $end
$var reg 64 s" data_word [63:0] $end
$var integer 32 t" pkt_idx [31:0] $end
$var integer 32 u" word_idx [31:0] $end
$upscope $end
$scope task start_test $end
$var reg 512 v" name [511:0] $end
$upscope $end
$scope task wait_for_expected_words $end
$var integer 32 w" timeout_cycles [31:0] $end
$var integer 32 x" waited [31:0] $end
$scope begin wait_block $end
$upscope $end
$upscope $end
$upscope $end
$enddefinitions $end
#0
$dumpvars
bx x"
bx w"
bx v"
bx u"
bx t"
bx s"
bx r"
bx q"
bx p"
bx o"
bx n"
bx m"
bx l"
bx k"
bx j"
bx i"
bx h"
bx g"
bx f"
bx e"
bx d"
bx c"
bx b"
bx a"
bx `"
bx _"
bx ^"
bx ]"
bx \"
bx ["
bx Z"
bx Y"
bx X"
bx W"
bx V"
bx U"
bx T"
bx S"
bx R"
bx Q"
bx P"
bx O"
bx N"
bx M"
bx L"
bx K"
bx J"
bx I"
bx H"
bx G"
bx F"
bx E"
bx D"
bx C"
bx B"
bx A"
bx @"
bx ?"
bx >"
bx ="
bx <"
bx ;"
bx :"
bx 9"
bx 8"
bx 7"
06"
b0 5"
b0 4"
bx 3"
bx 2"
bx 1"
bx 0"
bx /"
x."
bx -"
bx ,"
x+"
bx *"
bx )"
bx ("
bx '"
bx &"
b0 %"
0$"
x#"
b0 ""
b0 !"
x~
0}
bx |
bx {
0z
b0 y
bx x
bx w
bx v
bx u
bx t
bx s
xr
bx q
bx p
xo
bx n
bx m
bx l
bx k
bx j
bx i
xh
xg
bx f
bx e
xd
xc
bx b
xa
bx `
bx _
x^
x]
bx \
bx [
xZ
bx Y
bx X
xW
xV
bx U
bx T
xS
xR
bx Q
bx P
b0 O
b0 N
b0 M
b0 L
b0 K
b0 J
b0 I
b0 H
bx G
bx F
b0 E
b0 D
b0 C
b0 B
b0 A
b0 @
b0 ?
b0 >
b0 =
b0 <
0;
1:
b0 9
08
17
b0 6
b0 5
04
03
02
b0 1
b0 0
0/
b0 .
b0 -
b1100010011011110110111101110100 ,
0+
x*
bx )
bx (
x'
0&
b0 %
b0 $
1#
0"
b0 !
$end
#5000
0h
0^
0]
0~
0c
0Z
b0 Y
b0 [
b0 e
b0 U
b0 `
b0 ("
b0 i
b0 x
b0 X
b0 \
b0 f
b0 T
b0 _
b0 '"
0#"
b0 3"
b0 &"
b0 2"
1*
0d
b0 )
b0 Q
b0 l
b0 (
b0 P
b0 k
0g
b0 w
b0 j
b0 v
1S
1W
0V
0R
0+"
b0 ,"
0."
b0 /"
b0 -"
b0 1"
b0 0"
b0 b
0a
0'
0o
b0 p
0r
b0 s
b0 q
b0 u
b0 t
b1 >
1+
#10000
0+
#15000
b10 >
1+
#20000
0+
#25000
b11 >
1+
#30000
0+
#35000
b100 >
0:
1+
#40000
0+
#45000
13
b1 <
b101 >
1+
#50000
0+
#55000
b10 <
b110 >
1+
#60000
0+
#65000
b11 <
b111 >
1+
#70000
0+
#75000
b100 <
b1000 >
b0 T"
b11 S"
b1 D
b1110100011000110011000000110001010111110111001001100101011001110101111101110000011000010111010001101000010111110111001101101101011011110110101101100101 ,
b1110100011000110011000000110001010111110111001001100101011001110101111101110000011000010111010001101000010111110111001101101101011011110110101101100101 v"
1+
#80000
0+
#85000
b101 <
b1001 >
b1 T"
1+
#90000
0+
#95000
b110 <
b1010 >
b10 T"
1+
#100000
0+
#105000
b111 <
b1011 >
b11 !
b11 O
b11 9
b11 N
b11111111111111111111111111111111 $
b11111111111111111111111111111111 M
b11111111111111111111111111111111 6
b11111111111111111111111111111111 L
b1111111111111111 %
b1111111111111111 K
b1111111111111111 5
b1111111111111111 J
0#
07
1&
14
1"
18
b11 T"
1+
#106000
b0 e"
b0 x"
b1100001101010000 w"
b0 !
b0 O
b0 9
b0 N
b0 $
b0 M
b0 6
b0 L
b0 %
b0 K
b0 5
b0 J
1#
17
0&
04
0"
08
#110000
0+
#115000
b1000 <
b1100 >
b1 e"
1+
#120000
0+
#125000
b1001 <
b1101 >
b10 e"
1+
#130000
0+
#135000
b1010 <
b1110 >
b0 T"
b10 D
b11101000110001100110000001100100101111101101111011100000110110001011111011001100110111101110010011011010110000101110100010111110111001101101101011011110110101101100101 ,
b11101000110001100110000001100100101111101101111011100000110110001011111011001100110111101110010011011010110000101110100010111110111001101101101011011110110101101100101 v"
b11 e"
1+
#140000
0+
#145000
b1011 <
b1111 >
b1 T"
1+
#150000
0+
#155000
b1100 <
b10000 >
b10 T"
1+
#160000
0+
#165000
b1101 <
b10001 >
1$"
1}
12
b11111111 0
b11111111 H
b11111111 !"
b111111110000000000000010000000000000011000000000000000110000000000101011 %"
b111111110000000000000010000000000000011000000000000000110000000000101011 4"
b10000000000000011000000000000000110000000000101011 1
b10000000000000011000000000000000110000000000101011 I
b10000000000000011000000000000000110000000000101011 ""
b1 t"
b0 u"
b11111111 r"
b10000000000000011000000000000000110000000000101011 s"
b0 q"
1;
b1 f"
b0 i"
b11111111111111111111111111111111 h"
b1 g"
b1 n"
b1 C
b1 m"
b0 p"
b11111111111111111111111111111111 o"
b11 Y"
b110 Z"
b10000000000000011000000000000000110000000000101011 V"
b110 X"
b10 U"
b11 W"
b100000 F
b11 G
b11 b"
b11 c"
b10000000000000000000000000000000000000000 ]"
b110 d"
b101011 `"
b110 _"
b101011 ["
b111 E
b110 a"
b10 \"
b11 ^"
b1 >"
b1 <"
b1 ="
b1001 Q"
b11101 P"
b0 9"
b101011 A
b1 ;"
b11000000101010000000000100000010 :"
b1 L"
b1000000010 N"
b100000001 O"
b10 K"
b11 M"
b1 R"
b11 T"
1+
#170000
0+
#175000
b1 &"
b1 2"
b1110 <
b10010 >
b1 1"
b1 0"
b1 ?
b11111111 j"
b10000000000000011000000000000000110000000000101011 k"
1+
#180000
b1 u"
b0 r"
b10001001000100011001101000100010101010110011001110111 s"
b1 q"
b0 0
b0 H
b0 !"
b10001001000100011001101000100010101010110011001110111 %"
b10001001000100011001101000100010101010110011001110111 4"
b10001001000100011001101000100010101010110011001110111 1
b10001001000100011001101000100010101010110011001110111 I
b10001001000100011001101000100010101010110011001110111 ""
12
0+
#185000
b10 &"
b10 2"
b111111110000000000000010000000000000011000000000000000110000000000101011 )"
b111111110000000000000010000000000000011000000000000000110000000000101011 8"
b10 1"
b1111 <
b10011 >
b10 ?
b0 j"
b10001001000100011001101000100010101010110011001110111 k"
1+
#190000
b10 u"
b1000100010011001101010101011101100001000000000000100010100000000 s"
b10 q"
b1000100010011001101010101011101100001000000000000100010100000000 %"
b1000100010011001101010101011101100001000000000000100010100000000 4"
b1000100010011001101010101011101100001000000000000100010100000000 1
b1000100010011001101010101011101100001000000000000100010100000000 I
b1000100010011001101010101011101100001000000000000100010100000000 ""
12
0+
#195000
b11 &"
b11 2"
b10000 <
b10100 >
b11 1"
b11 ?
b1000100010011001101010101011101100001000000000000100010100000000 k"
1+
#200000
b11 u"
b11101000100100011010001000000000000000100000000010001 s"
b11 q"
b11101000100100011010001000000000000000100000000010001 %"
b11101000100100011010001000000000000000100000000010001 4"
b11101000100100011010001000000000000000100000000010001 1
b11101000100100011010001000000000000000100000000010001 I
b11101000100100011010001000000000000000100000000010001 ""
12
0+
#205000
b100 &"
b100 2"
b100 1"
b10001 <
b10101 >
b100 ?
b11101000100100011010001000000000000000100000000010001 k"
1+
#210000
b100 u"
b110000001010100000000001000000011100000010101000 s"
b100 q"
b110000001010100000000001000000011100000010101000 %"
b110000001010100000000001000000011100000010101000 4"
b110000001010100000000001000000011100000010101000 1
b110000001010100000000001000000011100000010101000 I
b110000001010100000000001000000011100000010101000 ""
12
0+
#215000
b101 &"
b101 2"
b10010 <
b10110 >
b101 1"
b101 ?
b110000001010100000000001000000011100000010101000 k"
1+
#220000
b101 u"
b100000010000000010000000100000010000000100000000000001001 s"
b101 q"
b100000010000000010000000100000010000000100000000000001001 %"
b100000010000000010000000100000010000000100000000000001001 4"
b100000010000000010000000100000010000000100000000000001001 1
b100000010000000010000000100000010000000100000000000001001 I
b100000010000000010000000100000010000000100000000000001001 ""
12
0+
#225000
b110 &"
b110 2"
b110 1"
b10011 <
b10111 >
b110 ?
b100000010000000010000000100000010000000100000000000001001 k"
1+
#230000
b100000 0
b100000 H
b100000 !"
b110 u"
b100000 r"
b10000000000000000000000000000000000000000 s"
b110 q"
b1000000000000000000000000000010000000000000000000000000000000000000000 %"
b1000000000000000000000000000010000000000000000000000000000000000000000 4"
b10000000000000000000000000000000000000000 1
b10000000000000000000000000000000000000000 I
b10000000000000000000000000000000000000000 ""
12
0+
#235000
1#"
0$"
0}
0*
b10100 <
b11000 >
b111 -"
b10 0"
b111 ?
b100000 j"
b10000000000000000000000000000000000000000 k"
1+
#240000
0;
b111 q"
b0 0
b0 H
b0 !"
b0 %"
b0 4"
b0 1
b0 I
b0 ""
02
0+
#245000
0#"
b1 3"
b1000000000000000000000000000010000000000000000000000000000000000000000 *"
b1000000000000000000000000000010000000000000000000000000000000000000000 7"
1."
b1 /"
b10101 <
b11001 >
b1 x"
1+
#250000
0+
#255000
1h
1^
1c
1Z
b11111111 Y
b11111111 [
b11111111 e
b11111111 U
b11111111 `
b11111111 ("
b111111110000000000000010000000000000011000000000000000110000000000101011 i
b111111110000000000000010000000000000011000000000000000110000000000101011 x
b10000000000000011000000000000000110000000000101011 X
b10000000000000011000000000000000110000000000101011 \
b10000000000000011000000000000000110000000000101011 f
b10000000000000011000000000000000110000000000101011 T
b10000000000000011000000000000000110000000000101011 _
b10000000000000011000000000000000110000000000101011 '"
b10110 <
b11010 >
0."
1V
1R
1+"
b111111110000000000000010000000000000011000000000000000110000000000101011 ,"
b10001001000100011001101000100010101010110011001110111 )"
b10001001000100011001101000100010101010110011001110111 8"
b10 x"
1+
#260000
0+
#265000
0h
1#"
0^
0]
b1 j
b1 v
0c
0Z
0V
0R
0+"
1a
b1 u
b1 t
b10111 <
b11011 >
b11 x"
1+
#270000
0+
#275000
0#"
b10 3"
b11000 <
b11100 >
b111111110000000000000010000000000000011000000000000000110000000000101011 m
b111111110000000000000010000000000000011000000000000000110000000000101011 |
1."
b10 /"
b100 x"
1+
#280000
0+
#285000
1h
1c
1Z
b0 Y
b0 [
b0 e
b0 U
b0 `
b0 ("
b10001001000100011001101000100010101010110011001110111 i
b10001001000100011001101000100010101010110011001110111 x
b10001001000100011001101000100010101010110011001110111 X
b10001001000100011001101000100010101010110011001110111 \
b10001001000100011001101000100010101010110011001110111 f
b10001001000100011001101000100010101010110011001110111 T
b10001001000100011001101000100010101010110011001110111 _
b10001001000100011001101000100010101010110011001110111 '"
b1000100010011001101010101011101100001000000000000100010100000000 )"
b1000100010011001101010101011101100001000000000000100010100000000 8"
0."
1V
1R
1+"
b10001001000100011001101000100010101010110011001110111 ,"
b11001 <
b11101 >
b101 x"
1+
#290000
0+
#295000
0h
b10 j
b10 v
1#"
0c
0Z
b11010 <
b11110 >
b10 u
0V
0R
0+"
b110 x"
1+
#300000
0+
#305000
0#"
b11 3"
1."
b11 /"
b11011 <
b11111 >
b111 x"
1+
#310000
0+
#315000
1h
1c
1Z
b1000100010011001101010101011101100001000000000000100010100000000 i
b1000100010011001101010101011101100001000000000000100010100000000 x
b1000100010011001101010101011101100001000000000000100010100000000 X
b1000100010011001101010101011101100001000000000000100010100000000 \
b1000100010011001101010101011101100001000000000000100010100000000 f
b1000100010011001101010101011101100001000000000000100010100000000 T
b1000100010011001101010101011101100001000000000000100010100000000 _
b1000100010011001101010101011101100001000000000000100010100000000 '"
b11100 <
b100000 >
0."
1V
1R
1+"
b1000100010011001101010101011101100001000000000000100010100000000 ,"
b11101000100100011010001000000000000000100000000010001 )"
b11101000100100011010001000000000000000100000000010001 8"
b1000 x"
1+
#320000
0+
#325000
0h
1#"
b11 j
b11 v
0c
0Z
0V
0R
0+"
b11 u
b11101 <
b100001 >
b1001 x"
1+
#330000
0+
#335000
0#"
b100 3"
b11110 <
b100010 >
1."
b100 /"
b1010 x"
1+
#340000
0+
#345000
1h
1c
1Z
b11101000100100011010001000000000000000100000000010001 i
b11101000100100011010001000000000000000100000000010001 x
b11101000100100011010001000000000000000100000000010001 X
b11101000100100011010001000000000000000100000000010001 \
b11101000100100011010001000000000000000100000000010001 f
b11101000100100011010001000000000000000100000000010001 T
b11101000100100011010001000000000000000100000000010001 _
b11101000100100011010001000000000000000100000000010001 '"
b110000001010100000000001000000011100000010101000 )"
b110000001010100000000001000000011100000010101000 8"
0."
1V
1R
1+"
b11101000100100011010001000000000000000100000000010001 ,"
b11111 <
b100011 >
b1011 x"
1+
#350000
0+
#355000
0h
b100 j
b100 v
1#"
0c
0Z
b100000 <
b100100 >
b100 u
0V
0R
0+"
b1100 x"
1+
#360000
0+
#365000
0#"
b101 3"
1."
b101 /"
b100001 <
b100101 >
b1101 x"
1+
#370000
0+
#375000
1h
1c
1Z
b110000001010100000000001000000011100000010101000 i
b110000001010100000000001000000011100000010101000 x
b110000001010100000000001000000011100000010101000 X
b110000001010100000000001000000011100000010101000 \
b110000001010100000000001000000011100000010101000 f
b110000001010100000000001000000011100000010101000 T
b110000001010100000000001000000011100000010101000 _
b110000001010100000000001000000011100000010101000 '"
b100010 <
b100110 >
0."
1V
1R
1+"
b110000001010100000000001000000011100000010101000 ,"
b100000010000000010000000100000010000000100000000000001001 )"
b100000010000000010000000100000010000000100000000000001001 8"
b1110 x"
1+
#380000
0+
#385000
0h
1#"
b101 j
b101 v
0c
0Z
0V
0R
0+"
b101 u
b100011 <
b100111 >
b1111 x"
1+
#390000
0+
#395000
0#"
b110 3"
b100100 <
b101000 >
1."
b110 /"
b10000 x"
1+
#400000
0+
#405000
1h
1c
1Z
b100000010000000010000000100000010000000100000000000001001 i
b100000010000000010000000100000010000000100000000000001001 x
b100000010000000010000000100000010000000100000000000001001 X
b100000010000000010000000100000010000000100000000000001001 \
b100000010000000010000000100000010000000100000000000001001 f
b100000010000000010000000100000010000000100000000000001001 T
b100000010000000010000000100000010000000100000000000001001 _
b100000010000000010000000100000010000000100000000000001001 '"
b1000000000000000000000000000010000000000000000000000000000000000000000 )"
b1000000000000000000000000000010000000000000000000000000000000000000000 8"
0."
1V
1R
1+"
b100000010000000010000000100000010000000100000000000001001 ,"
b100101 <
b101001 >
b10001 x"
1+
#410000
0+
#415000
0h
b110 j
b110 v
1#"
0c
0Z
b100110 <
b101010 >
b110 u
0V
0R
0+"
b10010 x"
1+
#420000
0+
#425000
0#"
b111 3"
1."
b111 /"
b100111 <
b101011 >
b10011 x"
1+
#430000
0+
#435000
1h
1]
1c
1Z
b100000 Y
b100000 [
b100000 e
b100000 U
b100000 `
b100000 ("
b1000000000000000000000000000010000000000000000000000000000000000000000 i
b1000000000000000000000000000010000000000000000000000000000000000000000 x
b10000000000000000000000000000000000000000 X
b10000000000000000000000000000000000000000 \
b10000000000000000000000000000000000000000 f
b10000000000000000000000000000000000000000 T
b10000000000000000000000000000000000000000 _
b10000000000000000000000000000000000000000 '"
b101000 <
b101100 >
0."
1V
1R
1+"
b1000000000000000000000000000010000000000000000000000000000000000000000 ,"
bx )"
bx 8"
b10100 x"
1+
#440000
0+
#445000
1g
0^
0]
0h
1~
0c
0Z
0S
0W
0V
0R
0+"
0a
b111 q
b10 t
b101001 <
b101101 >
b10101 x"
1+
#450000
0+
#455000
0g
0~
b1 w
b0 &"
b0 2"
1*
b101010 <
b101110 >
1r
b1 s
b1000000000000000000000000000010000000000000000000000000000000000000000 n
b1000000000000000000000000000010000000000000000000000000000000000000000 {
b0 0"
b10110 x"
1+
#460000
0+
#465000
b0 3"
b11111111 )
b11111111 Q
b11111111 l
b10000000000000011000000000000000110000000000101011 (
b10000000000000011000000000000000110000000000101011 P
b10000000000000011000000000000000110000000000101011 k
b111111110000000000000010000000000000011000000000000000110000000000101011 *"
b111111110000000000000010000000000000011000000000000000110000000000101011 7"
b0 /"
b0 -"
b0 1"
b10001001000100011001101000100010101010110011001110111 m
b10001001000100011001101000100010101010110011001110111 |
0r
1'
1o
b111111110000000000000010000000000000011000000000000000110000000000101011 p
b101011 <
b101111 >
b10111 x"
1+
#470000
0+
#475000
1g
b1 B
b101100 <
b110000 >
0'
0o
b111111110000000000000010000000000000011000000000000000110000000000101011 )"
b111111110000000000000010000000000000011000000000000000110000000000101011 8"
b11000 x"
1+
#480000
0+
#485000
0g
b10 w
1r
b10 s
b101101 <
b110001 >
b11001 x"
1+
#490000
0+
#495000
b0 )
b0 Q
b0 l
b10001001000100011001101000100010101010110011001110111 (
b10001001000100011001101000100010101010110011001110111 P
b10001001000100011001101000100010101010110011001110111 k
b101110 <
b110010 >
0r
1'
1o
b10001001000100011001101000100010101010110011001110111 p
b1000100010011001101010101011101100001000000000000100010100000000 m
b1000100010011001101010101011101100001000000000000100010100000000 |
b11010 x"
1+
#500000
0+
#505000
1g
0'
0o
b101111 <
b110011 >
b10 B
b11011 x"
1+
#510000
0+
#515000
0g
b11 w
b110000 <
b110100 >
1r
b11 s
b11100 x"
1+
#520000
0+
#525000
b1000100010011001101010101011101100001000000000000100010100000000 (
b1000100010011001101010101011101100001000000000000100010100000000 P
b1000100010011001101010101011101100001000000000000100010100000000 k
b11101000100100011010001000000000000000100000000010001 m
b11101000100100011010001000000000000000100000000010001 |
0r
1'
1o
b1000100010011001101010101011101100001000000000000100010100000000 p
b110001 <
b110101 >
b11101 x"
1+
#530000
0+
#535000
1g
b11 B
b110010 <
b110110 >
0'
0o
b11110 x"
1+
#540000
0+
#545000
0g
b100 w
1r
b100 s
b110011 <
b110111 >
b11111 x"
1+
#550000
0+
#555000
b11101000100100011010001000000000000000100000000010001 (
b11101000100100011010001000000000000000100000000010001 P
b11101000100100011010001000000000000000100000000010001 k
b110100 <
b111000 >
0r
1'
1o
b11101000100100011010001000000000000000100000000010001 p
b110000001010100000000001000000011100000010101000 m
b110000001010100000000001000000011100000010101000 |
b100000 x"
1+
#560000
0+
#565000
1g
0'
0o
b110101 <
b111001 >
b100 B
b100001 x"
1+
#570000
0+
#575000
0g
b101 w
b110110 <
b111010 >
1r
b101 s
b100010 x"
1+
#580000
0+
#585000
b110000001010100000000001000000011100000010101000 (
b110000001010100000000001000000011100000010101000 P
b110000001010100000000001000000011100000010101000 k
b100000010000000010000000100000010000000100000000000001001 m
b100000010000000010000000100000010000000100000000000001001 |
0r
1'
1o
b110000001010100000000001000000011100000010101000 p
b110111 <
b111011 >
b100011 x"
1+
#590000
0+
#595000
1g
b101 B
b111000 <
b111100 >
0'
0o
b100100 x"
1+
#600000
0+
#605000
0g
b110 w
1r
b110 s
b111001 <
b111101 >
b100101 x"
1+
#610000
0+
#615000
b100000010000000010000000100000010000000100000000000001001 (
b100000010000000010000000100000010000000100000000000001001 P
b100000010000000010000000100000010000000100000000000001001 k
b111010 <
b111110 >
0r
1'
1o
b100000010000000010000000100000010000000100000000000001001 p
b1000000000000000000000000000010000000000000000000000000000000000000000 m
b1000000000000000000000000000010000000000000000000000000000000000000000 |
b100110 x"
1+
#620000
0+
#625000
1g
0'
0o
b111011 <
b111111 >
b110 B
b100111 x"
1+
#630000
0+
#635000
0g
b111 w
b111100 <
b1000000 >
1r
b111 s
b101000 x"
1+
#640000
0+
#645000
b100000 )
b100000 Q
b100000 l
b10000000000000000000000000000000000000000 (
b10000000000000000000000000000000000000000 P
b10000000000000000000000000000000000000000 k
bx m
bx |
0r
1'
1o
b1000000000000000000000000000010000000000000000000000000000000000000000 p
b111101 <
b1000001 >
b101001 x"
1+
#650000
0+
#655000
1d
b111 B
b111110 <
b1000010 >
0'
0o
b101010 x"
1+
#660000
0+
#665000
0d
b0 j
b0 v
1S
1W
b0 t
b111111 <
b1000011 >
b0 e"
b101011 x"
1+
#670000
0+
#675000
b0 w
b1000000 <
b1000100 >
b0 s
b0 q
b0 u
b111111110000000000000010000000000000011000000000000000110000000000101011 n
b111111110000000000000010000000000000011000000000000000110000000000101011 {
b1 e"
1+
#680000
0+
#685000
b111111110000000000000010000000000000011000000000000000110000000000101011 m
b111111110000000000000010000000000000011000000000000000110000000000101011 |
b1000001 <
b1000101 >
b10 e"
1+
#690000
0+
